30-Day Mortality Rate of Patients with Pneumonia Admitted to MICU
…
cohort_subjects %>%
  collect() %>%
  mutate(ethnic_group = case_when(
    str_detect(ethnicity, "^ASIAN") ~ "ASIAN",
    str_detect(ethnicity, "^BLACK") ~ "BLACK",
    str_detect(ethnicity, "^HISPANIC") ~ "HISPANIC",
    str_detect(ethnicity, "^WHITE") ~ "WHITE",
    ethnicity %in% unknown_ethnicity ~ NA_character_,
    TRUE ~ NA_character_
  )) %>%
  select(subject_id, gender, ethnic_group) %>%
  print() -> cohort_subjects

## # A tibble: 2,498 x 3
##    subject_id gender ethnic_group
##         <int> <chr>  <chr>       
##  1         36 M      WHITE       
##  2         68 F      BLACK       
##  3         85 M      WHITE       
##  4         94 M      ASIAN       
##  5        105 F      BLACK       
##  6        109 F      BLACK       
##  7        124 M      WHITE       
##  8        184 M      WHITE       
##  9        203 M      ASIAN       
## 10        211 F      WHITE       
## #  with 2,488 more rows
…
most <- function(x) {
  if (all(is.na(x))) return(NA_character_)
  y <- table(x, useNA = "no")
  if (length(which(y == max(y))) > 1) return(NA_character_)
  return(names(y)[which.max(y)])
}

cohort_subjects %>%
  group_by(subject_id) %>%
  summarize(ethnic_group = most(ethnic_group)) %>%
  ungroup() %>%
  mutate(ethnic_group = ifelse(is.na(ethnic_group), "UNKNOWN", ethnic_group)) %>%
  print() -> cohort_ethnic_groups

## # A tibble: 2,460 x 2
##    subject_id ethnic_group
##         <int> <chr>       
##  1         36 WHITE       
##  2         68 BLACK       
##  3         85 WHITE       
##  4         94 ASIAN       
##  5        105 BLACK       
##  6        109 BLACK       
##  7        124 WHITE       
##  8        184 WHITE       
##  9        203 ASIAN       
## 10        211 WHITE       
## #  with 2,450 more rows

cohort_subjects %>%
  select(subject_id, gender) %>%
  left_join(cohort_ethnic_groups, by = "subject_id") %>%
  print() -> cohort_subjects

## # A tibble: 2,498 x 3
##    subject_id gender ethnic_group
##         <int> <chr>  <chr>       
##  1         36 M      WHITE       
##  2         68 F      BLACK       
##  3         85 M      WHITE       
##  4         94 M      ASIAN       
##  5        105 F      BLACK       
##  6        109 F      BLACK       
##  7        124 M      WHITE       
##  8        184 M      WHITE       
##  9        203 M      ASIAN       
## 10        211 F      WHITE       
## #  with 2,488 more rows
…
