Biostat 203B Homework 2
…
# third merge
tibble3 <- left_join(tibble2, first_sys, by = "SUBJECT_ID")

death_days <- as.numeric(as.duration(admission$DEATHTIME - admission$ADMITTIME), "days")

thirty_death <- admission %>% mutate(DDAYS = case_when(death_days >= 30 ~ "FALSE",
                                      death_days < 30 ~ "TRUE")) %>% arrange(SUBJECT_ID) %>% select("SUBJECT_ID", "DDAYS", "ADMITTIME", "DEATHTIME") %>% arrange(SUBJECT_ID, ADMITTIME) %>% distinct(SUBJECT_ID, .keep_all = TRUE) %>% select("SUBJECT_ID", "DDAYS")

# last merge
final_tibble <- inner_join(tibble3, thirty_death, by = "SUBJECT_ID")

final_tibble %>% print(width = Inf) 

## # A tibble: 46,476 x 13
##    SUBJECT_ID HADM_ID ICUSTAY_ID INTIME              GENDER LANGUAGE
##         <int>   <int>      <int> <dttm>              <chr>  <chr>   
##  1          2  163353     243653 2138-07-17 21:20:07 M      <NA>    
##  2          3  145834     211552 2101-10-20 19:10:11 M      <NA>    
##  3          4  185777     294638 2191-03-16 00:29:31 F      <NA>    
##  4          5  178980     214757 2103-02-02 06:04:24 M      <NA>    
##  5          6  107064     228232 2175-05-30 21:30:54 F      ENGL    
##  6          7  118037     278444 2121-05-23 15:35:29 F      <NA>    
##  7          8  159514     262299 2117-11-20 12:36:10 M      <NA>    
##  8          9  150750     220597 2149-11-09 13:07:02 M      <NA>    
##  9         10  184167     288409 2103-06-28 11:39:05 F      <NA>    
## 10         11  194540     229441 2178-04-16 06:19:32 F      <NA>    
##    RELIGION          MARITAL_STATUS ETHNICITY              LABEL VALUE VALUEUOM
##    <chr>             <chr>          <chr>                  <chr> <dbl> <chr>   
##  1 NOT SPECIFIED     <NA>           ASIAN                  <NA>     NA <NA>    
##  2 CATHOLIC          MARRIED        WHITE                  <NA>     NA <NA>    
##  3 PROTESTANT QUAKER SINGLE         WHITE                  <NA>     NA <NA>    
##  4 BUDDHIST          <NA>           ASIAN                  <NA>     NA <NA>    
##  5 NOT SPECIFIED     MARRIED        WHITE                  <NA>     NA <NA>    
##  6 CATHOLIC          <NA>           WHITE                  <NA>     NA <NA>    
##  7 CATHOLIC          <NA>           WHITE                  <NA>     NA <NA>    
##  8 UNOBTAINABLE      <NA>           UNKNOWN/NOT SPECIFIED  <NA>     NA <NA>    
##  9 UNOBTAINABLE      <NA>           BLACK/AFRICAN AMERICAN <NA>     NA <NA>    
## 10 OTHER             MARRIED        WHITE                  <NA>     NA <NA>    
##    DDAYS
##    <chr>
##  1 <NA> 
##  2 <NA> 
##  3 <NA> 
##  4 <NA> 
##  5 <NA> 
##  6 <NA> 
##  7 <NA> 
##  8 TRUE 
##  9 <NA> 
## 10 <NA> 
## #  with 46,466 more rows
